{
    "id":"2",
    "localUrl" :"ditech",
    "title" : "Ditech",
    "url": "http://ditech.com",
    "desc": "High Life kale chips blog biodiesel locavore slow-carb, farm-to-table freegan.",
    "image1" : "http://www.jacksonhewitt.com/pages/images/jackson-hewitt-logo.png",
    "image2" : "",
    "image3" : "",
    "date" : "08/2013"
}