[
    {
        "id":"1",
        "localUrl" :"ditech",
        "title" : "Ditech",
        "desc": "High Life kale chips blog biodiesel locavore slow-carb, farm-to-table freegan."
    },
    {
        "id" : "2",
        "localUrl" :"jackson-hewitt",
        "title" : "Jackson Hewitt",
        "desc" : "Twee meggings Williamsburg forage irony lo-fi scenester slow-carb."
    }
]